…
## Usage

### Download data from [Kansas Master Ground-Water Well Inventory](http://hercules.kgs.ku.edu/geohydro/master_well/index.cfm)

There are two functions in the package which retrieve data from Kansas
Master Ground-Water Well Inventory.

``` r
library(kgsr)
dt <- mwi("allen")
dt
#> # A tibble: 627 x 31
#>     WELL_KID LATITUDE LONGITUDE LAT_LONG_DATUM LAT_LONG_SOURCE COUNTY_CODE
#>        <int>    <dbl>     <dbl> <chr>          <chr>                 <int>
#>  1    1.04e⁹     37.9     -95.3 NAD83          LEO                       1
#>  2    1.04e⁹     37.9     -95.3 NAD83          LEO                       1
#>  3    1.04e⁹     37.9     -95.3 NAD83          LEO                       1
#>  4    1.04e⁹     37.9     -95.3 NAD83          LEO                       1
#>  5    1.04e⁹     37.9     -95.3 NAD83          LEO                       1
#>  6    1.04e⁹     37.9     -95.3 NAD83          LEO                       1
#>  7    1.04e⁹     37.9     -95.2 NAD83          LEO                       1
#>  8    1.04e⁹     37.9     -95.2 NAD83          LEO                       1
#>  9    1.04e⁹     37.8     -95.2 NAD83          LEO                       1
#> 10    1.04e⁹     37.8     -95.2 NAD83          LEO                       1
#> # ... with 617 more rows, and 25 more variables: TOWNSHIP <int>,
#> #   TOWNSHIP_DIRECTION <chr>, RANGE <int>, RANGE_DIRECTION <chr>, SECTION
#> #   <int>, SUBDIVISION_1_LARGEST <chr>, SUBDIVISION_2 <chr>, SUBDIVISION_3
#> #   <chr>, SUBDIVISION_4_SMALLEST <chr>, ELEVATION_SURFACE <dbl>,
#> #   ELEVATION_SURFACE_DATUM <chr>, ELEVATION_SURFACE_SOURCE <chr>,
#> #   ELEVATION_SURFACE_NED <int>, ELEVATION_SURFACE_NED_DATUM <chr>,
#> #   COMPLETION_DATE <dttm>, WELL_DEPTH <int>, USES_OF_WATER <chr>,
#> #   NAD27_LATITUDE <dbl>, NAD27_LONGITUDE <dbl>, NAD83_LATITUDE <dbl>,
#> #   NAD83_LONGITUDE <dbl>, WWC5_INPUT_SEQ_NUMBERS <dbl>, WRIS_PDIV_ID
#> #   <int>, WIZARD_USGS_ID <dbl>, WELL_STATUS <chr>

# -----------------------------------------------------------------------------
# Ignoring unmatched file
# -----------------------------------------------------------------------------
dt <- mwi("Cowley")
#> There are unmatched records, ignoring them! You can set 'unmatched = TRUE' if you also want that data.
dt
#> # A tibble: 2,337 x 31
#>     WELL_KID LATITUDE LONGITUDE LAT_LONG_DATUM LAT_LONG_SOURCE COUNTY_CODE
#>        <int>    <dbl>     <dbl> <chr>          <chr>                 <int>
#>  1    1.04e⁹     37.2     -97.0 NAD83          LEO                      35
#>  2    1.04e⁹     37.2     -97.0 NAD83          LEO                      35
#>  3    1.04e⁹     37.2     -97.0 NAD83          LEO                      35
#>  4    1.04e⁹     37.2     -97.0 NAD83          LEO                      35
#>  5    1.04e⁹     37.2     -97.0 NAD83          GPS                      35
#>  6    1.04e⁹     37.2     -97.0 NAD83          LEO                      35
#>  7    1.04e⁹     37.2     -97.0 NAD83          LEO                      35
#>  8    1.04e⁹     37.2     -97.0 NAD83          LEO                      35
#>  9    1.04e⁹     37.2     -97.0 NAD83          LEO                      35
#> 10    1.04e⁹     37.2     -97.0 NAD83          LEO                      35
#> # ... with 2,327 more rows, and 25 more variables: TOWNSHIP <int>,
#> #   TOWNSHIP_DIRECTION <chr>, RANGE <int>, RANGE_DIRECTION <chr>, SECTION
#> #   <int>, SUBDIVISION_1_LARGEST <chr>, SUBDIVISION_2 <chr>, SUBDIVISION_3
#> #   <chr>, SUBDIVISION_4_SMALLEST <chr>, ELEVATION_SURFACE <dbl>,
#> #   ELEVATION_SURFACE_DATUM <chr>, ELEVATION_SURFACE_SOURCE <chr>,
#> #   ELEVATION_SURFACE_NED <int>, ELEVATION_SURFACE_NED_DATUM <chr>,
#> #   COMPLETION_DATE <dttm>, WELL_DEPTH <int>, USES_OF_WATER <chr>,
#> #   NAD27_LATITUDE <dbl>, NAD27_LONGITUDE <dbl>, NAD83_LATITUDE <dbl>,
#> #   NAD83_LONGITUDE <dbl>, WWC5_INPUT_SEQ_NUMBERS <dbl>, WRIS_PDIV_ID
…
